simulation/qsim/LAB_05.msim.vcd
$comment
	File created using the following command:
		vcd file LAB_05.msim.vcd -direction
$end
$date
	Fri Nov 04 12:08:13 2022
$end
$version
	ModelSim Version 10.1d
$end
$timescale
	1ps
$end
$scope module REG4BIT_FLIPFLOP_vlg_vec_tst $end
$var reg 1 ! CLK1 $end
$var reg 1 " I0 $end
$var reg 1 # I1 $end
$var reg 1 $ I2 $end
$var reg 1 % I3 $end
$var wire 1 & Q0 $end
$var wire 1 ' Q1 $end
$var wire 1 ( Q2 $end
$var wire 1 ) Q3 $end
$var wire 1 * sampler $end
$scope module i1 $end
$var wire 1 + gnd $end
$var wire 1 , vcc $end
$var wire 1 - unknown $end
$var tri1 1 . devclrn $end
$var tri1 1 / devpor $end
$var tri1 1 0 devoe $end
$var wire 1 1 Q3~output_o $end
$var wire 1 2 Q2~output_o $end
$var wire 1 3 Q1~output_o $end
$var wire 1 4 Q0~output_o $end
$var wire 1 5 CLK1~input_o $end
$var wire 1 6 I3~input_o $end
$var wire 1 7 u0|Q~q $end
$var wire 1 8 I2~input_o $end
$var wire 1 9 u1|Q~q $end
$var wire 1 : I1~input_o $end
$var wire 1 ; u2|Q~q $end
$var wire 1 < I0~input_o $end
$var wire 1 = u3|Q~q $end
$upscope $end
$upscope $end
$enddefinitions $end
#0
$dumpvars
0!
1"
0#
0$
1%
0&
0'
0(
0)
x*
0+
1,
x-
1.
1/
10
01
02
03
04
05
16
07
08
09
0:
0;
1<
0=
$end
#15000
0"
0<
0*
#20000
1#
1:
1*
#25000
1!
15
0*
1;
17
13
11
1'
1)
#30000
1"
1<
1*
#45000
0"
0<
0*
#50000
0!
05
1*
#60000
0#
1"
0:
1<
0*
#75000
1!
0"
15
0<
1*
1=
0;
14
03
1&
0'
#80000
0%
1#
06
1:
0*
#100000
0!
0#
05
0:
1*
#120000
1"
1%
1<
16
0*
#125000
1!
15
1*
#135000
0"
0<
0*
#140000
1#
1:
1*
#150000
0!
1"
05
1<
0*
#160000
0%
0#
06
0:
1*
#175000
1!
15
0*
07
01
0)
#180000
0"
0<
1*
#200000
1$
1#
0!
18
1:
05
0*
#225000
1"
1!
1<
15
1*
1;
19
13
12
1'
1(
#250000
0!
05
0*
#255000
0"
0<
1*
#270000
1"
1<
0*
#275000
1!
15
1*
#280000
0#
0:
0*
#285000
0"
0<
1*
#300000
0!
1#
1"
05
1:
1<
0*
#315000
0"
0<
1*
#320000
1%
16
0*
#325000
1!
15
1*
0=
17
04
11
0&
1)
#340000
0#
0:
0*
#345000
1"
1<
1*
#350000
0$
0!
08
05
0*
#360000
0%
06
1*
#375000
0"
1!
0<
15
0*
0;
09
07
03
02
01
0'
0(
0)
#380000
1#
1:
1*
#390000
1"
1<
0*
#400000
0!
05
1*
#425000
1!
15
0*
1=
1;
14
13
1&
1'
#440000
1%
16
1*
#450000
1$
0!
18
05
0*
#460000
0#
0:
1*
#475000
1!
15
0*
0;
19
17
03
12
11
0'
1(
1)
#480000
0"
0%
0<
06
1*
#500000
1#
0!
1:
05
0*
#510000
1"
1<
1*
#525000
1!
15
0*
1;
07
13
01
1'
0)
#540000
0#
0"
0:
0<
1*
#550000
0!
05
0*
#555000
1"
1<
1*
#560000
1%
16
0*
#570000
0"
0<
1*
#575000
1!
15
0*
0=
0;
17
04
03
11
0&
0'
1)
#600000
0!
05
1*
#625000
1!
15
0*
#640000
1#
0%
1:
06
1*
#645000
1"
1<
0*
#650000
0$
0!
08
05
1*
#660000
0#
0"
0:
0<
0*
#675000
1!
15
1*
09
07
02
01
0(
0)
#680000
1%
16
0*
#700000
1#
0!
1:
05
1*
#705000
1"
1<
0*
#720000
0%
0"
06
0<
1*
#725000
1!
15
0*
1;
13
1'
#740000
0#
0:
1*
#750000
1$
1"
0!
18
1<
05
0*
#760000
1%
16
1*
#775000
1!
15
0*
1=
0;
19
17
14
03
12
11
1&
0'
1(
1)
#780000
0"
0<
1*
#795000
1"
1<
0*
#800000
1#
0!
1:
05
1*
#820000
0#
0:
0*
#825000
1!
15
1*
#840000
0"
1#
0<
1:
0*
#850000
0!
05
1*
#855000
1"
1<
0*
#870000
0"
0<
1*
#875000
1!
15
0*
0=
1;
04
13
0&
1'
#900000
0$
0!
08
05
1*
#925000
1!
15
0*
09
02
0(
#930000
1"
1<
1*
#940000
0#
0:
0*
#945000
0"
0<
1*
#950000
0!
05
0*
#975000
1!
15
1*
0;
03
0'
